{ "_id" : { "$oid" : "5e1eea8c59af3e35108792c0" }, "assets" : [  ], "title" : "gd", "description" : "gf", "typeId" : { "$oid" : "5e2425a85ed57d5854c78c9f" }, "preview" : { "$oid" : "5e28a00fb0b21f0028c74238" }, "price" : 0, "createdAt" : { "$date" : "2020-01-15T10:33:48.706+0000" }, "uuid" : "xRc-mLto", "__v" : 1, "createdBy" : { "$oid" : "5e2020cac330a45f77dedce7" }, "updatedAt" : { "$date" : "2020-02-13T12:25:40.700+0000" }, "deletedAt" : { "$date" : "2020-02-13T12:25:40.700+0000" }, "updatedBy" : { "$oid" : "5e2020cac330a45f77dedce7" } }
{ "_id" : { "$oid" : "5e2427ea5ed57d5854c78ca2" }, "assets" : [ { "$oid" : "5e1ee8c5f86c1a3462919df4" }, { "$oid" : "5e1ee915f86c1a3462919df6" }, { "$oid" : "5e1ee99cf86c1a3462919df8" }, { "$oid" : "5e1ee9ecf86c1a3462919dfa" }, { "$oid" : "5e1eea2bf86c1a3462919dfc" }, { "$oid" : "5e1eea8a59af3e35108792bf" } ], "title" : "Ресторан", "description" : "[description_key:restaurant_1]", "typeId" : { "$oid" : "5e2425a85ed57d5854c78c9f" }, "preview" : { "$oid" : "5e28a00fb0b21f0028c74238" }, "price" : 10, "createdAt" : { "$date" : "2020-01-15T10:33:48.706+0000" }, "uuid" : "xRc-mLtod", "createdBy" : { "$oid" : "5e2020cac330a45f77dedce7" }, "updatedAt" : { "$date" : "2020-02-17T14:52:19.504+0000" }, "__v" : 1, "subtitle1" : "Вместимость 110 человек", "subtitle2" : "300 м2" }
{ "_id" : { "$oid" : "5e2428105ed57d5854c78ca3" }, "assets" : [ { "$oid" : "5e2fffb15237317966771060" }, { "$oid" : "5e1ee8c5f86c1a3462919df4" }, { "$oid" : "5e1ee915f86c1a3462919df6" }, { "$oid" : "5e1ee99cf86c1a3462919df8" }, { "$oid" : "5e1ee9ecf86c1a3462919dfa" }, { "$oid" : "5e1eea2bf86c1a3462919dfc" }, { "$oid" : "5e1eea8a59af3e35108792bf" } ], "title" : "Зал в Донецке", "description" : "gf", "typeId" : { "$oid" : "5e24259c5ed57d5854c78c9e" }, "preview" : { "$oid" : "5e28a00fb0b21f0028c74238" }, "price" : 0, "createdAt" : { "$date" : "2020-01-15T10:33:48.706+0000" }, "uuid" : "xRc-mLto", "createdBy" : { "$oid" : "5e2020cac330a45f77dedce7" }, "deletedAt" : { "$date" : "2020-02-12T20:50:48.165+0000" }, "updatedAt" : { "$date" : "2020-02-12T20:50:48.165+0000" } }
{ "_id" : { "$oid" : "5e45367b5fb2e878ec67a663" }, "assets" : [ { "$oid" : "5e453b0ef6408a7ab62fda23" }, { "$oid" : "5e453abef6408a7ab62fda21" }, { "$oid" : "5e453aabf6408a7ab62fda1f" }, { "$oid" : "5e453a94f6408a7ab62fda1d" }, { "$oid" : "5e453a76f6408a7ab62fda1b" }, { "$oid" : "5e4538615fb2e878ec67a671" } ], "title" : "gfgf", "description" : "fghfd", "typeId" : { "$oid" : "5e2425a85ed57d5854c78c9f" }, "preview" : { "$oid" : "5e4536bc5fb2e878ec67a664" }, "price" : 100, "createdBy" : { "$oid" : "5e2020cac330a45f77dedce7" }, "createdAt" : { "$date" : "2020-02-13T11:43:55.459+0000" }, "updatedAt" : { "$date" : "2020-02-13T12:28:05.209+0000" }, "__v" : 7, "updatedBy" : { "$oid" : "5e2020cac330a45f77dedce7" }, "deletedAt" : { "$date" : "2020-02-13T12:28:05.209+0000" } }
{ "_id" : { "$oid" : "5e4542305fd6c07cee46ae8a" }, "assets" : [  ], "title" : "укеу", "description" : "уке", "typeId" : { "$oid" : "5e24259c5ed57d5854c78c9e" }, "preview" : null, "price" : 54, "createdBy" : { "$oid" : "5e2020cac330a45f77dedce7" }, "createdAt" : { "$date" : "2020-02-13T12:33:52.699+0000" }, "updatedAt" : { "$date" : "2020-02-13T12:34:05.521+0000" }, "__v" : 0, "deletedAt" : { "$date" : "2020-02-13T12:34:05.521+0000" }, "updatedBy" : { "$oid" : "5e2020cac330a45f77dedce7" } }
{ "_id" : { "$oid" : "5e4642495fd6c07cee46ae8f" }, "assets" : [  ], "title" : "Shelton", "description" : "Москва", "typeId" : { "$oid" : "5e24259c5ed57d5854c78c9e" }, "preview" : { "$oid" : "5e4642455fd6c07cee46ae8e" }, "price" : 12, "createdBy" : { "$oid" : "5e2020cac330a45f77dedce7" }, "createdAt" : { "$date" : "2020-02-14T06:46:33.423+0000" }, "updatedAt" : { "$date" : "2020-02-14T06:47:26.276+0000" }, "__v" : 0, "deletedAt" : { "$date" : "2020-02-14T06:47:26.276+0000" }, "updatedBy" : { "$oid" : "5e2020cac330a45f77dedce7" } }
{ "_id" : { "$oid" : "5e4647725fd6c07cee46ae94" }, "assets" : [  ], "title" : "Shelton", "description" : "new", "typeId" : { "$oid" : "5e24259c5ed57d5854c78c9e" }, "preview" : { "$oid" : "5e4647525fd6c07cee46ae93" }, "price" : 0, "createdBy" : { "$oid" : "5e2020cac330a45f77dedce7" }, "createdAt" : { "$date" : "2020-02-14T07:08:34.466+0000" }, "updatedAt" : { "$date" : "2020-02-14T07:09:49.060+0000" }, "__v" : 0, "deletedAt" : { "$date" : "2020-02-14T07:09:49.060+0000" }, "updatedBy" : { "$oid" : "5e2020cac330a45f77dedce7" } }
{ "_id" : { "$oid" : "5e464ac7f67ad23f5e5aca36" }, "assets" : [  ], "title" : "dfg", "description" : "", "typeId" : { "$oid" : "5e24259c5ed57d5854c78c9e" }, "preview" : { "$oid" : "5e464abcf67ad23f5e5aca35" }, "price" : 0, "createdBy" : { "$oid" : "5e2020cac330a45f77dedce7" }, "createdAt" : { "$date" : "2020-02-14T07:22:47.048+0000" }, "updatedAt" : { "$date" : "2020-02-14T07:22:53.180+0000" }, "__v" : 0, "deletedAt" : { "$date" : "2020-02-14T07:22:53.177+0000" }, "updatedBy" : { "$oid" : "5e2020cac330a45f77dedce7" } }
{ "_id" : { "$oid" : "5e464b575fd6c07cee46ae95" }, "assets" : [  ], "title" : "зал", "description" : "", "typeId" : { "$oid" : "5e24259c5ed57d5854c78c9e" }, "preview" : null, "price" : 100, "createdBy" : { "$oid" : "5e2020cac330a45f77dedce7" }, "createdAt" : { "$date" : "2020-02-14T07:25:11.418+0000" }, "updatedAt" : { "$date" : "2020-02-14T07:25:30.588+0000" }, "__v" : 0, "deletedAt" : { "$date" : "2020-02-14T07:25:30.588+0000" }, "updatedBy" : { "$oid" : "5e2020cac330a45f77dedce7" } }
{ "_id" : { "$oid" : "5e466502a038304782258dc9" }, "assets" : [  ], "title" : "sdfsdfsf", "description" : "sdfsfds", "typeId" : { "$oid" : "5e24259c5ed57d5854c78c9e" }, "preview" : { "$oid" : "5e46650ea038304782258dca" }, "price" : 0, "createdBy" : { "$oid" : "5e2020cac330a45f77dedce7" }, "createdAt" : { "$date" : "2020-02-14T09:14:42.820+0000" }, "updatedAt" : { "$date" : "2020-02-14T09:15:18.337+0000" }, "__v" : 0, "deletedAt" : { "$date" : "2020-02-14T09:15:18.335+0000" }, "updatedBy" : { "$oid" : "5e2020cac330a45f77dedce7" } }
{ "_id" : { "$oid" : "5e467a9c0c023c533ee236da" }, "assets" : [  ], "title" : "REWERFDF", "description" : "sdfdgdfg", "typeId" : { "$oid" : "5e24259c5ed57d5854c78c9e" }, "preview" : null, "price" : 0, "createdBy" : { "$oid" : "5e2020cac330a45f77dedce7" }, "createdAt" : { "$date" : "2020-02-14T10:46:52.685+0000" }, "updatedAt" : { "$date" : "2020-02-14T10:47:57.472+0000" }, "__v" : 0, "deletedAt" : { "$date" : "2020-02-14T10:47:57.471+0000" }, "updatedBy" : { "$oid" : "5e2020cac330a45f77dedce7" } }
{ "_id" : { "$oid" : "5e467b4e0c023c533ee236db" }, "assets" : [  ], "title" : "sdfs", "description" : "", "typeId" : { "$oid" : "5e24259c5ed57d5854c78c9e" }, "preview" : null, "price" : 0, "createdBy" : { "$oid" : "5e2020cac330a45f77dedce7" }, "createdAt" : { "$date" : "2020-02-14T10:49:50.506+0000" }, "updatedAt" : { "$date" : "2020-02-14T10:50:30.718+0000" }, "__v" : 0, "deletedAt" : { "$date" : "2020-02-14T10:50:30.718+0000" }, "updatedBy" : { "$oid" : "5e2020cac330a45f77dedce7" } }
{ "_id" : { "$oid" : "5e467b9e0c023c533ee236dc" }, "assets" : [  ], "title" : "dfg", "description" : "", "typeId" : { "$oid" : "5e24259c5ed57d5854c78c9e" }, "preview" : null, "price" : 0, "createdBy" : { "$oid" : "5e2020cac330a45f77dedce7" }, "createdAt" : { "$date" : "2020-02-14T10:51:10.578+0000" }, "updatedAt" : { "$date" : "2020-02-14T10:51:41.845+0000" }, "__v" : 0, "deletedAt" : { "$date" : "2020-02-14T10:51:41.845+0000" }, "updatedBy" : { "$oid" : "5e2020cac330a45f77dedce7" } }
{ "_id" : { "$oid" : "5e467bc20c023c533ee236dd" }, "assets" : [  ], "title" : "dfg", "description" : "", "typeId" : { "$oid" : "5e24259c5ed57d5854c78c9e" }, "preview" : null, "price" : 0, "createdBy" : { "$oid" : "5e2020cac330a45f77dedce7" }, "createdAt" : { "$date" : "2020-02-14T10:51:46.939+0000" }, "updatedAt" : { "$date" : "2020-02-14T10:52:54.839+0000" }, "__v" : 0, "deletedAt" : { "$date" : "2020-02-14T10:52:54.839+0000" }, "updatedBy" : { "$oid" : "5e2020cac330a45f77dedce7" } }
{ "_id" : { "$oid" : "5e467d3b0c023c533ee236de" }, "assets" : [  ], "title" : "sdfsdA", "description" : "", "typeId" : { "$oid" : "5e24259c5ed57d5854c78c9e" }, "preview" : null, "price" : 0, "createdBy" : { "$oid" : "5e2020cac330a45f77dedce7" }, "createdAt" : { "$date" : "2020-02-14T10:58:03.203+0000" }, "updatedAt" : { "$date" : "2020-02-14T10:58:25.195+0000" }, "__v" : 0, "deletedAt" : { "$date" : "2020-02-14T10:58:25.195+0000" }, "updatedBy" : { "$oid" : "5e2020cac330a45f77dedce7" } }
{ "_id" : { "$oid" : "5e47c5f8095bde1f75f69794" }, "assets" : [  ], "title" : "test", "description" : "d", "typeId" : { "$oid" : "5e24259c5ed57d5854c78c9e" }, "preview" : null, "price" : 0, "createdBy" : { "$oid" : "5e2020cac330a45f77dedce7" }, "createdAt" : { "$date" : "2020-02-15T10:20:40.809+0000" }, "updatedAt" : { "$date" : "2020-02-15T10:36:28.287+0000" }, "__v" : 0, "deletedAt" : { "$date" : "2020-02-15T10:36:28.284+0000" }, "updatedBy" : { "$oid" : "5e2020cac330a45f77dedce7" } }
{ "_id" : { "$oid" : "5e47c9d0eb533420bb96c0be" }, "assets" : [  ], "title" : "dsdfdfg", "description" : "sdf", "typeId" : { "$oid" : "5e24259c5ed57d5854c78c9e" }, "preview" : null, "price" : 0, "createdBy" : { "$oid" : "5e2020cac330a45f77dedce7" }, "createdAt" : { "$date" : "2020-02-15T10:37:04.459+0000" }, "updatedAt" : { "$date" : "2020-02-15T10:42:16.142+0000" }, "__v" : 0, "deletedAt" : { "$date" : "2020-02-15T10:42:16.141+0000" }, "updatedBy" : { "$oid" : "5e2020cac330a45f77dedce7" } }
{ "_id" : { "$oid" : "5e47cb0ddbe78921df2c43b1" }, "assets" : [  ], "title" : "xf", "description" : "dfg", "typeId" : { "$oid" : "5e24259c5ed57d5854c78c9e" }, "preview" : null, "price" : 0, "createdBy" : { "$oid" : "5e2020cac330a45f77dedce7" }, "createdAt" : { "$date" : "2020-02-15T10:42:21.699+0000" }, "updatedAt" : { "$date" : "2020-02-15T10:42:29.004+0000" }, "__v" : 0, "deletedAt" : { "$date" : "2020-02-15T10:42:29.004+0000" }, "updatedBy" : { "$oid" : "5e2020cac330a45f77dedce7" } }
{ "_id" : { "$oid" : "5e47d08566e88a23df594ae0" }, "assets" : [ { "$oid" : "5e47d945a0ecc729e2dbbda6" }, { "$oid" : "5e47d5c466e88a23df594afb" }, { "$oid" : "5e47d58066e88a23df594af9" } ], "title" : "зал", "description" : "фыяртсчя", "typeId" : { "$oid" : "5e24259c5ed57d5854c78c9e" }, "preview" : { "$oid" : "5e47d0d766e88a23df594ae2" }, "price" : 0, "createdBy" : { "$oid" : "5e2020cac330a45f77dedce7" }, "createdAt" : { "$date" : "2020-02-15T11:05:41.377+0000" }, "updatedAt" : { "$date" : "2020-02-15T11:59:10.535+0000" }, "__v" : 9, "deletedAt" : { "$date" : "2020-02-15T11:59:10.533+0000" }, "updatedBy" : { "$oid" : "5e2020cac330a45f77dedce7" } }
{ "_id" : { "$oid" : "5e47d9e7a0ecc729e2dbbdaa" }, "assets" : [ { "$oid" : "5e47e2b959ffdf2e7df2158a" }, { "$oid" : "5e47e1710dd8ee2cff72e706" } ], "title" : "Shelton", "description" : "restaurant", "typeId" : { "$oid" : "5e24259c5ed57d5854c78c9e" }, "preview" : { "$oid" : "5e47e50a59ffdf2e7df2158c" }, "price" : 0, "createdBy" : { "$oid" : "5e2020cac330a45f77dedce7" }, "createdAt" : { "$date" : "2020-02-15T11:45:43.007+0000" }, "updatedAt" : { "$date" : "2020-02-17T13:06:10.284+0000" }, "__v" : 12, "deletedAt" : { "$date" : "2020-02-17T13:06:10.284+0000" }, "updatedBy" : { "$oid" : "5e2020cac330a45f77dedce7" } }
{ "_id" : { "$oid" : "5e4a29e1bcd1821f46fa3acb" }, "assets" : [ { "$oid" : "5e4e92bdcdc4a64e47e1799b" } ], "title" : "Вип-зал", "description" : "Мы предусмотрели отличную площадку для мероприятий и достойные возможности для проведения конференций, семинаров, рабочих встреч. К услугам гостей предлагаются: многофункциональный конференц-зал вместимостью до 60 персон. Все площадки для мероприятий оснащены комфортной мебелью, кондиционером, необходимым набором техники и оборудования, имеется бесплатный доступ к сети WiFi. По желанию можно организовать кофе-паузу или бизнес-ланч, имеется гардероб, бесплатная парковка.", "typeId" : { "$oid" : "5e24259c5ed57d5854c78c9e" }, "preview" : { "$oid" : "5e4a2971bcd1821f46fa3ac7" }, "price" : 0, "createdBy" : { "$oid" : "5e2020cac330a45f77dedce7" }, "createdAt" : { "$date" : "2020-02-17T05:51:29.212+0000" }, "updatedAt" : { "$date" : "2020-02-20T14:11:32.962+0000" }, "__v" : 1, "subtitle1" : "120м", "subtitle2" : "110м" }
{ "_id" : { "$oid" : "5e4a2f1fbcd1821f46fa3ad3" }, "assets" : [ { "$oid" : "5e4e9392cdc4a64e47e179a0" } ], "title" : "Конференц-холл", "description" : "Большой просторный светлый конференц зал расположен в исторической части города.\nКомфортный микроклимат в зале, и в холод, и в жару, обеспечивается кондиционерами.\nПрекрасно совмещает строгий интерьер с современным медийным оснащением.\n\nТехнические возможности (стоимость и подключение опций согласовывается с администратором):\n\nПроектор\nWi-Fi скоростной (подключение до 200 пользователей)\nЭкран 4х4метра\nЗвуковая система\nБеспроводные микрофоны\nНастольный микрофон (гусак)\nФлип-чарт\nКулер с водой\nПрезентер (кликер)\nДополнительные возможности (стоимость опций согласовывается с администратором):\n\nСинхронный перевод\nОн-лайн трансляция\nВидеозапись\nПлазменная понель\nКофе-брейк\nБизнес-ланч", "typeId" : { "$oid" : "5e2425a85ed57d5854c78c9f" }, "preview" : { "$oid" : "5e4a2e4ebcd1821f46fa3acf" }, "price" : 0, "createdBy" : { "$oid" : "5e2020cac330a45f77dedce7" }, "createdAt" : { "$date" : "2020-02-17T06:13:51.636+0000" }, "updatedAt" : { "$date" : "2020-02-20T14:11:31.955+0000" }, "__v" : 1, "subtitle1" : "Площадь: 210 м²", "subtitle2" : "Театр: 210 чел" }
{ "_id" : { "$oid" : "5e4a54a761496760fed1b240" }, "assets" : [  ], "title" : "test", "description" : "testsdfs", "typeId" : { "$oid" : "5e24259c5ed57d5854c78c9e" }, "preview" : null, "price" : 0, "createdBy" : { "$oid" : "5e2020cac330a45f77dedce7" }, "createdAt" : { "$date" : "2020-02-17T08:53:59.672+0000" }, "updatedAt" : { "$date" : "2020-02-17T08:54:12.623+0000" }, "__v" : 0, "deletedAt" : { "$date" : "2020-02-17T08:54:12.621+0000" }, "updatedBy" : { "$oid" : "5e2020cac330a45f77dedce7" } }
{ "_id" : { "$oid" : "5e4e93a2cdc4a64e47e179a2" }, "assets" : [ { "$oid" : "5e4e963280746b04d4393b43" } ], "title" : "test", "description" : "test", "subtitle1" : "вместимость 50 человек", "subtitle2" : "200 м2", "typeId" : { "$oid" : "5e24259c5ed57d5854c78c9e" }, "preview" : { "$oid" : "5e4e95ef80746b04d4393b3a" }, "price" : 0, "createdBy" : { "$oid" : "5e2020cac330a45f77dedce7" }, "createdAt" : { "$date" : "2020-02-20T14:11:46.527+0000" }, "updatedAt" : { "$date" : "2020-02-20T14:23:54.467+0000" }, "__v" : 2, "deletedAt" : { "$date" : "2020-02-20T14:23:54.465+0000" }, "updatedBy" : { "$oid" : "5e2020cac330a45f77dedce7" } }
{ "_id" : { "$oid" : "5e4ec1cd80746b04d4393b47" }, "assets" : [ { "$oid" : "5e4ec69a80746b04d4393b65" }, { "$oid" : "5e4ec68480746b04d4393b63" } ], "title" : "test 2", "description" : "ресторан", "subtitle1" : "вместимость 70 человек", "subtitle2" : "200 м2", "typeId" : { "$oid" : "5e24259c5ed57d5854c78c9e" }, "preview" : { "$oid" : "5e4ec1ca80746b04d4393b46" }, "price" : 0, "createdBy" : { "$oid" : "5e2020cac330a45f77dedce7" }, "createdAt" : { "$date" : "2020-02-20T17:28:45.783+0000" }, "updatedAt" : { "$date" : "2020-02-22T16:59:17.044+0000" }, "__v" : 6, "deletedAt" : { "$date" : "2020-02-22T16:59:17.044+0000" }, "updatedBy" : { "$oid" : "5e2020cac330a45f77dedce7" } }
{ "_id" : { "$oid" : "5e515e31aba53f6732522d32" }, "assets" : [ { "$oid" : "5e5160adaba53f6732522d40" }, { "$oid" : "5e515f58aba53f6732522d3c" } ], "title" : "ресторан  test", "description" : "ресторан", "subtitle1" : "вместимость 100 человек", "subtitle2" : "площадь 300 м2", "typeId" : { "$oid" : "5e24259c5ed57d5854c78c9e" }, "preview" : { "$oid" : "5e515e2eaba53f6732522d31" }, "price" : 0, "createdBy" : { "$oid" : "5e2020cac330a45f77dedce7" }, "createdAt" : { "$date" : "2020-02-22T17:00:33.145+0000" }, "updatedAt" : { "$date" : "2020-02-23T11:54:47.303+0000" }, "__v" : 7 }
