{ "_id" : { "$oid" : "5e45c55ff74e7697b8bb3b57" }, "eventId" : { "$oid" : "5e4476f91615e92f8bfb0a39" }, "memberId" : { "$oid" : "5e09c2012068670025c8c298" }, "__v" : 0, "createdAt" : { "$date" : "2020-02-13T21:53:35.124+0000" }, "updatedAt" : { "$date" : "2020-02-13T22:24:00.913+0000" }, "isFavourite" : true }
{ "_id" : { "$oid" : "5e47c5f2f74e7697b8bc47dc" }, "eventId" : { "$oid" : "5e44692e1615e92f8bfb0a25" }, "memberId" : { "$oid" : "5e09c2012068670025c8c298" }, "__v" : 0, "createdAt" : { "$date" : "2020-02-15T10:20:34.529+0000" }, "isFavourite" : false, "updatedAt" : { "$date" : "2020-02-15T10:20:46.590+0000" } }
{ "_id" : { "$oid" : "5e47ccb2f74e7697b8bc50ef" }, "eventId" : { "$oid" : "5e44692e1615e92f8bfb0a25" }, "memberId" : { "$oid" : "5e18dddad552e1250a7a1d5d" }, "__v" : 0, "createdAt" : { "$date" : "2020-02-15T10:49:22.887+0000" }, "isFavourite" : true, "updatedAt" : { "$date" : "2020-02-15T10:49:22.887+0000" } }
