{ "_id" : { "$oid" : "5e198897de6e1558858719cf" }, "favourite" : false, "memberId" : "5e18dddad552e1250a7a1d5d", "eventId" : "5e149a54be65060025333167", "bookingStatus" : "MEMBER_CANCELED", "__v" : 0, "updatedAt" : { "$date" : "2020-01-18T16:19:34.237+0000" } }
{ "_id" : { "$oid" : "5e19cc2e7b26b779ee4ee175" }, "favourite" : false, "memberId" : "5e09c2012068670025c8c298", "eventId" : "5e149a54be65060025333167", "bookingStatus" : "CONCIERGE_CONFIRMED", "__v" : 0 }
{ "_id" : { "$oid" : "5e19d2b400fc19f587791b92" }, "eventId" : "5e149a5abe65060025333168", "memberId" : "5e09c2012068670025c8c298", "__v" : 0, "favourite" : true, "bookingStatus" : "CONCIERGE_CONFIRMED", "updatedAt" : { "$date" : "2020-01-29T18:35:08.066+0000" } }
{ "_id" : { "$oid" : "5e19d2b900fc19f587791b9e" }, "eventId" : "5e149a71be65060025333169", "memberId" : "5e09c2012068670025c8c298", "__v" : 0, "favourite" : true, "bookingStatus" : "CONCIERGE_CONFIRMED", "updatedAt" : { "$date" : "2020-01-24T09:32:04.038+0000" } }
{ "_id" : { "$oid" : "5e1bfd38609619748db2a49c" }, "favourite" : true, "memberId" : "5e09c26c2068670025c8c2a3", "eventId" : "5e149a54be65060025333167", "bookingStatus" : "MEMBER_CANCELED", "__v" : 0 }
{ "_id" : { "$oid" : "5e1cd44359c11b1f809e2a65" }, "favourite" : true, "memberId" : "5e09c26c2068670025c8c2a3", "eventId" : "5e149a5abe65060025333168", "bookingStatus" : "CONCIERGE_CONFIRMED", "__v" : 0 }
{ "_id" : { "$oid" : "5e1ce596609619748db2a49d" }, "favourite" : true, "memberId" : "5e09c26c2068670025c8c2a3", "eventId" : "5e149a71be65060025333169", "bookingStatus" : "CONCIERGE_CONFIRMED", "__v" : 0 }
{ "_id" : { "$oid" : "5e1d76086ef9434da2f5064c" }, "favourite" : false, "memberId" : "5e18dddad552e1250a7a1d5d", "eventId" : "5e149a5abe65060025333168", "bookingStatus" : "CONCIERGE_CONFIRMED", "__v" : 0 }
{ "_id" : { "$oid" : "5e1f88ee6b07df5c978e6d5e" }, "favourite" : false, "memberId" : "5e18dddad552e1250a7a1d5d", "eventId" : "5e149a44be65060025333166", "bookingStatus" : "CONCIERGE_CONFIRMED", "__v" : 0 }
{ "_id" : { "$oid" : "5e21e46b7c6a159698bdf60f" }, "eventId" : "5e149a44be65060025333166", "memberId" : "5e09c26c2068670025c8c2a3", "__v" : 0, "favourite" : true }
{ "_id" : { "$oid" : "5e230bfb7d9ca54045f9e096" }, "favourite" : false, "memberId" : "5e18dddad552e1250a7a1d5d", "eventId" : "5e230645cd9c903eb6b97ace", "bookingStatus" : "CONCIERGE_CONFIRMED", "__v" : 0 }
{ "_id" : { "$oid" : "5e230c757d9ca54045f9e097" }, "favourite" : true, "memberId" : "5e18dddad552e1250a7a1d5d", "eventId" : "5e230bf8f9fe703fe294090a", "bookingStatus" : "CONCIERGE_CONFIRMED", "__v" : 0, "updatedAt" : { "$date" : "2020-01-23T21:55:13.838+0000" } }
{ "_id" : { "$oid" : "5e26bcd6c0af327876e974ed" }, "eventId" : "5e149a44be65060025333166", "memberId" : "5e09c2012068670025c8c298", "__v" : 0, "favourite" : false }
{ "_id" : { "$oid" : "5e3b29e072287bb1b8f75ce6" }, "eventId" : { "$oid" : "5e149a5abe65060025333168" }, "memberId" : { "$oid" : "5e09c2012068670025c8c298" }, "__v" : 0, "createdAt" : { "$date" : "2020-02-05T20:47:28.444+0000" }, "favourite" : false, "updatedAt" : { "$date" : "2020-02-06T08:11:13.734+0000" } }
{ "_id" : { "$oid" : "5e3bc964dc7cb4b2dcbf25f7" }, "eventId" : { "$oid" : "5e149a5abe65060025333168" }, "memberId" : { "$oid" : "5e18dddad552e1250a7a1d5d" }, "__v" : 0, "createdAt" : { "$date" : "2020-02-06T08:08:04.177+0000" }, "favourite" : false, "updatedAt" : { "$date" : "2020-02-06T08:08:06.518+0000" } }
{ "_id" : { "$oid" : "5e3bc9c669c74d0da55425b7" }, "favourite" : false, "memberId" : { "$oid" : "5e09c2012068670025c8c298" }, "eventId" : { "$oid" : "5e149a71be65060025333169" }, "bookingStatus" : "MEMBER_CANCELED", "createdAt" : { "$date" : "2020-02-06T08:09:42.195+0000" }, "updatedAt" : { "$date" : "2020-02-07T07:47:56.723+0000" }, "__v" : 0 }
{ "_id" : { "$oid" : "5e3d0c96dc4d5a00343c377f" }, "favourite" : false, "memberId" : { "$oid" : "5e09c2012068670025c8c298" }, "eventId" : { "$oid" : "5e230bf8f9fe703fe294090a" }, "bookingStatus" : "MEMBER_REQUESTED", "createdAt" : { "$date" : "2020-02-07T07:07:02.317+0000" }, "updatedAt" : { "$date" : "2020-02-07T07:07:02.317+0000" }, "__v" : 0 }
{ "_id" : { "$oid" : "5e3e62950e490e209881b1af" }, "favourite" : false, "memberId" : { "$oid" : "5e09c2012068670025c8c298" }, "eventId" : { "$oid" : "5e3d35eb9322bb1a88b7ac25" }, "bookingStatus" : "MEMBER_REQUESTED", "createdAt" : { "$date" : "2020-02-08T07:26:13.984+0000" }, "updatedAt" : { "$date" : "2020-02-08T21:57:37.627+0000" }, "__v" : 0 }
{ "_id" : { "$oid" : "5e3e96b42d1f96665939151c" }, "favourite" : true, "memberId" : { "$oid" : "5e18dddad552e1250a7a1d5d" }, "eventId" : { "$oid" : "5e3e71a64571da1e3a19c4ee" }, "bookingStatus" : "MEMBER_CANCELED", "createdAt" : { "$date" : "2020-02-08T11:08:36.807+0000" }, "updatedAt" : { "$date" : "2020-02-09T12:49:11.431+0000" }, "__v" : 0 }
{ "_id" : { "$oid" : "5e3e96b62d1f96665939151d" }, "favourite" : false, "memberId" : { "$oid" : "5e09c2012068670025c8c298" }, "eventId" : { "$oid" : "5e3e71a64571da1e3a19c4ee" }, "bookingStatus" : "MEMBER_CANCELED", "createdAt" : { "$date" : "2020-02-08T11:08:38.505+0000" }, "updatedAt" : { "$date" : "2020-02-10T07:41:49.402+0000" }, "__v" : 0 }
{ "_id" : { "$oid" : "5e3f384334431715af7216da" }, "favourite" : false, "memberId" : { "$oid" : "5e09c2012068670025c8c298" }, "eventId" : { "$oid" : "5e3e953be9b3026781cb147d" }, "bookingStatus" : "MEMBER_REQUESTED", "createdAt" : { "$date" : "2020-02-08T22:37:55.800+0000" }, "updatedAt" : { "$date" : "2020-02-08T22:37:55.800+0000" }, "__v" : 0 }
{ "_id" : { "$oid" : "5e3f397abe7cc5168f7e1663" }, "favourite" : false, "memberId" : { "$oid" : "5e09c2012068670025c8c298" }, "eventId" : { "$oid" : "5e245749b2215c0025d6e626" }, "bookingStatus" : "MEMBER_REQUESTED", "createdAt" : { "$date" : "2020-02-08T22:43:06.880+0000" }, "updatedAt" : { "$date" : "2020-02-08T22:43:06.880+0000" }, "__v" : 0 }
{ "_id" : { "$oid" : "5e40a0a7be7cc5168f7e1665" }, "favourite" : false, "memberId" : { "$oid" : "5e04a147839af30025b6922f" }, "eventId" : { "$oid" : "5e3e71a64571da1e3a19c4ee" }, "bookingStatus" : "MEMBER_CANCELED", "createdAt" : { "$date" : "2020-02-10T00:15:35.425+0000" }, "updatedAt" : { "$date" : "2020-02-10T00:17:26.327+0000" }, "__v" : 0 }
{ "_id" : { "$oid" : "5e41036e3985a275cc085ae7" }, "favourite" : false, "memberId" : { "$oid" : "5e09c2012068670025c8c298" }, "eventId" : { "$oid" : "5e3e71a64571da1e3a19c4ee" }, "bookingStatus" : "MEMBER_CANCELED", "createdAt" : { "$date" : "2020-02-10T07:17:02.975+0000" }, "updatedAt" : { "$date" : "2020-02-10T07:27:46.555+0000" }, "__v" : 0 }
{ "_id" : { "$oid" : "5e41060f1bd08176f6b0e815" }, "favourite" : false, "memberId" : { "$oid" : "5e09c2012068670025c8c298" }, "eventId" : { "$oid" : "5e3e71a64571da1e3a19c4ee" }, "bookingStatus" : "MEMBER_CANCELED", "createdAt" : { "$date" : "2020-02-10T07:28:15.551+0000" }, "updatedAt" : { "$date" : "2020-02-10T07:28:24.571+0000" }, "__v" : 0 }
{ "_id" : { "$oid" : "5e4106481bd08176f6b0e816" }, "favourite" : false, "memberId" : { "$oid" : "5e09c2012068670025c8c298" }, "eventId" : { "$oid" : "5e3e71a64571da1e3a19c4ee" }, "bookingStatus" : "MEMBER_CANCELED", "createdAt" : { "$date" : "2020-02-10T07:29:12.719+0000" }, "updatedAt" : { "$date" : "2020-02-10T07:29:42.007+0000" }, "__v" : 0 }
{ "_id" : { "$oid" : "5e4106f66fc0587773156b2f" }, "favourite" : false, "memberId" : { "$oid" : "5e09c2012068670025c8c298" }, "eventId" : { "$oid" : "5e3e71a64571da1e3a19c4ee" }, "bookingStatus" : "MEMBER_CANCELED", "createdAt" : { "$date" : "2020-02-10T07:32:06.490+0000" }, "updatedAt" : { "$date" : "2020-02-10T07:32:19.162+0000" }, "__v" : 0 }
{ "_id" : { "$oid" : "5e411c916fc0587773156b30" }, "favourite" : false, "memberId" : { "$oid" : "5e09c2012068670025c8c298" }, "eventId" : { "$oid" : "5e3e71a64571da1e3a19c4ee" }, "bookingStatus" : "MEMBER_CANCELED", "createdAt" : { "$date" : "2020-02-10T09:04:17.694+0000" }, "updatedAt" : { "$date" : "2020-02-10T09:43:32.185+0000" }, "__v" : 0 }
{ "_id" : { "$oid" : "5e411fba6fc0587773156b31" }, "favourite" : false, "memberId" : { "$oid" : "5e18dddad552e1250a7a1d5d" }, "eventId" : { "$oid" : "5e3e71a64571da1e3a19c4ee" }, "bookingStatus" : "MEMBER_REQUESTED", "createdAt" : { "$date" : "2020-02-10T09:17:46.365+0000" }, "updatedAt" : { "$date" : "2020-02-10T09:17:46.365+0000" }, "__v" : 0 }
{ "_id" : { "$oid" : "5e4120e3f74e7697b8b88217" }, "eventId" : { "$oid" : "5e3e71a64571da1e3a19c4ee" }, "memberId" : { "$oid" : "5e09c26c2068670025c8c2a3" }, "__v" : 0, "createdAt" : { "$date" : "2020-02-10T09:22:43.420+0000" }, "favourite" : true, "updatedAt" : { "$date" : "2020-02-10T09:22:52.401+0000" } }
{ "_id" : { "$oid" : "5e4120e56fc0587773156b32" }, "favourite" : false, "memberId" : { "$oid" : "5e09c26c2068670025c8c2a3" }, "eventId" : { "$oid" : "5e3e71a64571da1e3a19c4ee" }, "bookingStatus" : "MEMBER_CANCELED", "createdAt" : { "$date" : "2020-02-10T09:22:45.429+0000" }, "updatedAt" : { "$date" : "2020-02-10T09:22:56.200+0000" }, "__v" : 0 }
{ "_id" : { "$oid" : "5e4120f26fc0587773156b33" }, "favourite" : false, "memberId" : { "$oid" : "5e09c26c2068670025c8c2a3" }, "eventId" : { "$oid" : "5e3e71a64571da1e3a19c4ee" }, "bookingStatus" : "MEMBER_REQUESTED", "createdAt" : { "$date" : "2020-02-10T09:22:58.915+0000" }, "updatedAt" : { "$date" : "2020-02-10T09:22:58.915+0000" }, "__v" : 0 }
{ "_id" : { "$oid" : "5e4125c66fc0587773156b35" }, "favourite" : false, "memberId" : { "$oid" : "5e09c2012068670025c8c298" }, "eventId" : { "$oid" : "5e3e71a64571da1e3a19c4ee" }, "bookingStatus" : "MEMBER_CANCELED", "createdAt" : { "$date" : "2020-02-10T09:43:34.670+0000" }, "updatedAt" : { "$date" : "2020-02-10T10:16:22.187+0000" }, "__v" : 0 }
{ "_id" : { "$oid" : "5e412d7a6fc0587773156b38" }, "favourite" : false, "memberId" : { "$oid" : "5e09c2012068670025c8c298" }, "eventId" : { "$oid" : "5e3e71a64571da1e3a19c4ee" }, "bookingStatus" : "MEMBER_REQUESTED", "createdAt" : { "$date" : "2020-02-10T10:16:26.751+0000" }, "updatedAt" : { "$date" : "2020-02-10T10:16:26.751+0000" }, "__v" : 0 }
{ "_id" : { "$oid" : "5e4131866fc0587773156b39" }, "favourite" : true, "memberId" : { "$oid" : "5e09c2012068670025c8c298" }, "eventId" : { "$oid" : "5e413158a07005167f5ef209" }, "bookingStatus" : "MEMBER_CANCELED", "createdAt" : { "$date" : "2020-02-10T10:33:42.201+0000" }, "updatedAt" : { "$date" : "2020-02-11T09:20:31.628+0000" }, "__v" : 0 }
{ "_id" : { "$oid" : "5e4131df6fc0587773156b3a" }, "favourite" : false, "memberId" : { "$oid" : "5e09c2012068670025c8c298" }, "eventId" : { "$oid" : "5e413158a07005167f5ef209" }, "bookingStatus" : "MEMBER_CANCELED", "createdAt" : { "$date" : "2020-02-10T10:35:11.848+0000" }, "updatedAt" : { "$date" : "2020-02-10T10:42:10.679+0000" }, "__v" : 0 }
{ "_id" : { "$oid" : "5e4133916fc0587773156b3b" }, "favourite" : false, "memberId" : { "$oid" : "5e09c2012068670025c8c298" }, "eventId" : { "$oid" : "5e413158a07005167f5ef209" }, "bookingStatus" : "MEMBER_CANCELED", "createdAt" : { "$date" : "2020-02-10T10:42:25.432+0000" }, "updatedAt" : { "$date" : "2020-02-10T10:44:16.739+0000" }, "__v" : 0 }
{ "_id" : { "$oid" : "5e4134046fc0587773156b3c" }, "favourite" : false, "memberId" : { "$oid" : "5e09c2012068670025c8c298" }, "eventId" : { "$oid" : "5e413158a07005167f5ef209" }, "bookingStatus" : "MEMBER_CANCELED", "createdAt" : { "$date" : "2020-02-10T10:44:20.230+0000" }, "updatedAt" : { "$date" : "2020-02-10T10:44:26.069+0000" }, "__v" : 0 }
{ "_id" : { "$oid" : "5e4134256fc0587773156b3d" }, "favourite" : false, "memberId" : { "$oid" : "5e09c2012068670025c8c298" }, "eventId" : { "$oid" : "5e413158a07005167f5ef209" }, "bookingStatus" : "MEMBER_CANCELED", "createdAt" : { "$date" : "2020-02-10T10:44:53.635+0000" }, "updatedAt" : { "$date" : "2020-02-10T10:45:12.250+0000" }, "__v" : 0 }
{ "_id" : { "$oid" : "5e417fd46fc0587773156b3e" }, "favourite" : true, "memberId" : { "$oid" : "5e09c2012068670025c8c298" }, "eventId" : { "$oid" : "5e417f4fa07005167f5ef20c" }, "bookingStatus" : "MEMBER_CANCELED", "createdAt" : { "$date" : "2020-02-10T16:07:48.244+0000" }, "updatedAt" : { "$date" : "2020-02-12T11:19:27.642+0000" }, "__v" : 0 }
{ "_id" : { "$oid" : "5e4180b8f74e7697b8b8bfce" }, "eventId" : { "$oid" : "5e41808ba07005167f5ef20f" }, "memberId" : { "$oid" : "5e09c26c2068670025c8c2a3" }, "__v" : 0, "createdAt" : { "$date" : "2020-02-10T16:11:36.620+0000" }, "favourite" : true, "updatedAt" : { "$date" : "2020-02-10T20:32:03.067+0000" }, "bookingStatus" : "CONCIERGE_CONFIRMED" }
{ "_id" : { "$oid" : "5e4180b9f74e7697b8b8bfd2" }, "eventId" : { "$oid" : "5e417f4fa07005167f5ef20c" }, "memberId" : { "$oid" : "5e09c26c2068670025c8c2a3" }, "__v" : 0, "createdAt" : { "$date" : "2020-02-10T16:11:37.746+0000" }, "favourite" : true, "updatedAt" : { "$date" : "2020-02-10T16:11:37.746+0000" } }
{ "_id" : { "$oid" : "5e41c1cce329e224be14390e" }, "favourite" : true, "memberId" : { "$oid" : "5e09c2012068670025c8c298" }, "eventId" : { "$oid" : "5e41808ba07005167f5ef20f" }, "bookingStatus" : "MEMBER_CANCELED", "createdAt" : { "$date" : "2020-02-10T20:49:16.839+0000" }, "updatedAt" : { "$date" : "2020-02-13T09:10:28.452+0000" }, "__v" : 0 }
{ "_id" : { "$oid" : "5e41c248e329e224be14390f" }, "favourite" : false, "memberId" : { "$oid" : "5e09c2012068670025c8c298" }, "eventId" : { "$oid" : "5e41808ba07005167f5ef20f" }, "bookingStatus" : "MEMBER_CANCELED", "createdAt" : { "$date" : "2020-02-10T20:51:20.817+0000" }, "updatedAt" : { "$date" : "2020-02-10T21:32:22.604+0000" }, "__v" : 0 }
{ "_id" : { "$oid" : "5e41cbe94eb3f326c7417ef4" }, "favourite" : false, "memberId" : { "$oid" : "5e09c2012068670025c8c298" }, "eventId" : { "$oid" : "5e41808ba07005167f5ef20f" }, "bookingStatus" : "MEMBER_CANCELED", "createdAt" : { "$date" : "2020-02-10T21:32:25.601+0000" }, "updatedAt" : { "$date" : "2020-02-11T10:31:54.934+0000" }, "__v" : 0 }
{ "_id" : { "$oid" : "5e426fb28973b94af985b72a" }, "favourite" : false, "memberId" : { "$oid" : "5e18dddad552e1250a7a1d5d" }, "eventId" : { "$oid" : "5e413158a07005167f5ef209" }, "bookingStatus" : "MEMBER_CANCELED", "createdAt" : { "$date" : "2020-02-11T09:11:14.518+0000" }, "updatedAt" : { "$date" : "2020-02-11T09:11:26.769+0000" }, "__v" : 0 }
{ "_id" : { "$oid" : "5e426ff38973b94af985b72b" }, "favourite" : false, "memberId" : { "$oid" : "5e18dddad552e1250a7a1d5d" }, "eventId" : { "$oid" : "5e413158a07005167f5ef209" }, "bookingStatus" : "MEMBER_CANCELED", "createdAt" : { "$date" : "2020-02-11T09:12:19.574+0000" }, "updatedAt" : { "$date" : "2020-02-11T09:12:23.071+0000" }, "__v" : 0 }
{ "_id" : { "$oid" : "5e4270268973b94af985b72c" }, "favourite" : false, "memberId" : { "$oid" : "5e09c2012068670025c8c298" }, "eventId" : { "$oid" : "5e413158a07005167f5ef209" }, "bookingStatus" : "MEMBER_CANCELED", "createdAt" : { "$date" : "2020-02-11T09:13:10.177+0000" }, "updatedAt" : { "$date" : "2020-02-11T09:20:26.615+0000" }, "__v" : 0 }
{ "_id" : { "$oid" : "5e4271cc5a7c945162ea1d7f" }, "favourite" : false, "memberId" : { "$oid" : "5e18dddad552e1250a7a1d5d" }, "eventId" : { "$oid" : "5e413158a07005167f5ef209" }, "bookingStatus" : "MEMBER_CANCELED", "createdAt" : { "$date" : "2020-02-11T09:20:12.403+0000" }, "updatedAt" : { "$date" : "2020-02-11T09:20:24.082+0000" }, "__v" : 0 }
{ "_id" : { "$oid" : "5e42723a5a7c945162ea1d80" }, "favourite" : true, "memberId" : { "$oid" : "5e04a147839af30025b6922f" }, "eventId" : { "$oid" : "5e413158a07005167f5ef209" }, "bookingStatus" : "MEMBER_CANCELED", "createdAt" : { "$date" : "2020-02-11T09:22:02.739+0000" }, "updatedAt" : { "$date" : "2020-02-11T23:15:06.834+0000" }, "__v" : 0 }
{ "_id" : { "$oid" : "5e42724e5a7c945162ea1d81" }, "favourite" : false, "memberId" : { "$oid" : "5e04a147839af30025b6922f" }, "eventId" : { "$oid" : "5e413158a07005167f5ef209" }, "bookingStatus" : "MEMBER_CANCELED", "createdAt" : { "$date" : "2020-02-11T09:22:22.962+0000" }, "updatedAt" : { "$date" : "2020-02-11T09:22:35.502+0000" }, "__v" : 0 }
{ "_id" : { "$oid" : "5e42726c5a7c945162ea1d82" }, "favourite" : false, "memberId" : { "$oid" : "5e04a147839af30025b6922f" }, "eventId" : { "$oid" : "5e413158a07005167f5ef209" }, "bookingStatus" : "MEMBER_CANCELED", "createdAt" : { "$date" : "2020-02-11T09:22:52.895+0000" }, "updatedAt" : { "$date" : "2020-02-11T09:22:56.580+0000" }, "__v" : 0 }
{ "_id" : { "$oid" : "5e4272bc5a7c945162ea1d83" }, "favourite" : false, "memberId" : { "$oid" : "5e04a147839af30025b6922f" }, "eventId" : { "$oid" : "5e413158a07005167f5ef209" }, "bookingStatus" : "MEMBER_CANCELED", "createdAt" : { "$date" : "2020-02-11T09:24:12.660+0000" }, "updatedAt" : { "$date" : "2020-02-11T09:24:15.368+0000" }, "__v" : 0 }
{ "_id" : { "$oid" : "5e4272c15a7c945162ea1d84" }, "favourite" : false, "memberId" : { "$oid" : "5e04a147839af30025b6922f" }, "eventId" : { "$oid" : "5e413158a07005167f5ef209" }, "bookingStatus" : "MEMBER_CANCELED", "createdAt" : { "$date" : "2020-02-11T09:24:17.517+0000" }, "updatedAt" : { "$date" : "2020-02-11T09:24:19.181+0000" }, "__v" : 0 }
{ "_id" : { "$oid" : "5e4273ab5a7c945162ea1d85" }, "favourite" : false, "memberId" : { "$oid" : "5e04a147839af30025b6922f" }, "eventId" : { "$oid" : "5e413158a07005167f5ef209" }, "bookingStatus" : "MEMBER_CANCELED", "createdAt" : { "$date" : "2020-02-11T09:28:11.202+0000" }, "updatedAt" : { "$date" : "2020-02-11T09:28:16.540+0000" }, "__v" : 0 }
{ "_id" : { "$oid" : "5e4274265a7c945162ea1d86" }, "favourite" : false, "memberId" : { "$oid" : "5e04a147839af30025b6922f" }, "eventId" : { "$oid" : "5e413158a07005167f5ef209" }, "bookingStatus" : "MEMBER_CANCELED", "createdAt" : { "$date" : "2020-02-11T09:30:14.128+0000" }, "updatedAt" : { "$date" : "2020-02-11T09:30:44.242+0000" }, "__v" : 0 }
{ "_id" : { "$oid" : "5e4280ec2c1b0354a9c52515" }, "favourite" : false, "memberId" : { "$oid" : "5e18dddad552e1250a7a1d5d" }, "eventId" : { "$oid" : "5e413158a07005167f5ef209" }, "bookingStatus" : "MEMBER_CANCELED", "createdAt" : { "$date" : "2020-02-11T10:24:44.988+0000" }, "updatedAt" : { "$date" : "2020-02-11T10:26:16.248+0000" }, "__v" : 0 }
{ "_id" : { "$oid" : "5e4281582c1b0354a9c52516" }, "favourite" : false, "memberId" : { "$oid" : "5e18dddad552e1250a7a1d5d" }, "eventId" : { "$oid" : "5e413158a07005167f5ef209" }, "bookingStatus" : "MEMBER_CANCELED", "createdAt" : { "$date" : "2020-02-11T10:26:32.788+0000" }, "updatedAt" : { "$date" : "2020-02-11T10:28:56.634+0000" }, "__v" : 0 }
{ "_id" : { "$oid" : "5e4283370011b35724da1a47" }, "favourite" : false, "memberId" : { "$oid" : "5e18dddad552e1250a7a1d5d" }, "eventId" : { "$oid" : "5e413158a07005167f5ef209" }, "bookingStatus" : "MEMBER_CANCELED", "createdAt" : { "$date" : "2020-02-11T10:34:31.588+0000" }, "updatedAt" : { "$date" : "2020-02-11T10:35:27.879+0000" }, "__v" : 0 }
{ "_id" : { "$oid" : "5e4283880011b35724da1a48" }, "favourite" : false, "memberId" : { "$oid" : "5e18dddad552e1250a7a1d5d" }, "eventId" : { "$oid" : "5e413158a07005167f5ef209" }, "bookingStatus" : "MEMBER_CANCELED", "createdAt" : { "$date" : "2020-02-11T10:35:52.334+0000" }, "updatedAt" : { "$date" : "2020-02-11T10:35:59.298+0000" }, "__v" : 0 }
{ "_id" : { "$oid" : "5e4284c50011b35724da1a49" }, "favourite" : false, "memberId" : { "$oid" : "5e09c2012068670025c8c298" }, "eventId" : { "$oid" : "5e413158a07005167f5ef209" }, "bookingStatus" : "MEMBER_CANCELED", "createdAt" : { "$date" : "2020-02-11T10:41:09.822+0000" }, "updatedAt" : { "$date" : "2020-02-11T10:41:28.089+0000" }, "__v" : 0 }
{ "_id" : { "$oid" : "5e4285380011b35724da1a4a" }, "favourite" : false, "memberId" : { "$oid" : "5e09c2012068670025c8c298" }, "eventId" : { "$oid" : "5e41808ba07005167f5ef20f" }, "bookingStatus" : "MEMBER_CANCELED", "createdAt" : { "$date" : "2020-02-11T10:43:04.979+0000" }, "updatedAt" : { "$date" : "2020-02-11T10:46:30.948+0000" }, "__v" : 0 }
{ "_id" : { "$oid" : "5e4285620011b35724da1a4b" }, "favourite" : false, "memberId" : { "$oid" : "5e09c2012068670025c8c298" }, "eventId" : { "$oid" : "5e413158a07005167f5ef209" }, "bookingStatus" : "MEMBER_CANCELED", "createdAt" : { "$date" : "2020-02-11T10:43:46.589+0000" }, "updatedAt" : { "$date" : "2020-02-11T10:43:49.189+0000" }, "__v" : 0 }
{ "_id" : { "$oid" : "5e42862efc3a8b584b2c0cd2" }, "favourite" : false, "memberId" : { "$oid" : "5e09c2012068670025c8c298" }, "eventId" : { "$oid" : "5e41808ba07005167f5ef20f" }, "bookingStatus" : "MEMBER_CANCELED", "createdAt" : { "$date" : "2020-02-11T10:47:10.735+0000" }, "updatedAt" : { "$date" : "2020-02-11T10:50:03.788+0000" }, "__v" : 0 }
{ "_id" : { "$oid" : "5e4287c381ba785b714769cf" }, "favourite" : false, "memberId" : { "$oid" : "5e09c2012068670025c8c298" }, "eventId" : { "$oid" : "5e41808ba07005167f5ef20f" }, "bookingStatus" : "MEMBER_CANCELED", "createdAt" : { "$date" : "2020-02-11T10:53:55.044+0000" }, "updatedAt" : { "$date" : "2020-02-11T10:56:22.761+0000" }, "__v" : 0 }
{ "_id" : { "$oid" : "5e4289349977085c25e7a0c1" }, "favourite" : false, "memberId" : { "$oid" : "5e09c2012068670025c8c298" }, "eventId" : { "$oid" : "5e41808ba07005167f5ef20f" }, "bookingStatus" : "MEMBER_CANCELED", "createdAt" : { "$date" : "2020-02-11T11:00:04.176+0000" }, "updatedAt" : { "$date" : "2020-02-11T11:02:25.644+0000" }, "__v" : 0 }
{ "_id" : { "$oid" : "5e42be3505739b5d4ef2789c" }, "favourite" : false, "memberId" : { "$oid" : "5e04a147839af30025b6922f" }, "eventId" : { "$oid" : "5e413158a07005167f5ef209" }, "bookingStatus" : "MEMBER_CANCELED", "createdAt" : { "$date" : "2020-02-11T14:46:13.760+0000" }, "updatedAt" : { "$date" : "2020-02-11T14:46:19.450+0000" }, "__v" : 0 }
{ "_id" : { "$oid" : "5e42d6d505739b5d4ef2789d" }, "favourite" : false, "memberId" : { "$oid" : "5e09c2012068670025c8c298" }, "eventId" : { "$oid" : "5e413158a07005167f5ef209" }, "bookingStatus" : "MEMBER_CANCELED", "createdAt" : { "$date" : "2020-02-11T16:31:17.042+0000" }, "updatedAt" : { "$date" : "2020-02-12T11:17:54.500+0000" }, "__v" : 0 }
{ "_id" : { "$oid" : "5e43314505739b5d4ef2789e" }, "favourite" : false, "memberId" : { "$oid" : "5e04a147839af30025b6922f" }, "eventId" : { "$oid" : "5e413158a07005167f5ef209" }, "bookingStatus" : "MEMBER_CANCELED", "createdAt" : { "$date" : "2020-02-11T22:57:09.869+0000" }, "updatedAt" : { "$date" : "2020-02-11T22:59:16.024+0000" }, "__v" : 0 }
{ "_id" : { "$oid" : "5e43327605739b5d4ef2789f" }, "favourite" : false, "memberId" : { "$oid" : "5e04a147839af30025b6922f" }, "eventId" : { "$oid" : "5e413158a07005167f5ef209" }, "bookingStatus" : "MEMBER_CANCELED", "createdAt" : { "$date" : "2020-02-11T23:02:14.559+0000" }, "updatedAt" : { "$date" : "2020-02-11T23:03:45.168+0000" }, "__v" : 0 }
{ "_id" : { "$oid" : "5e4332e805739b5d4ef278a0" }, "favourite" : false, "memberId" : { "$oid" : "5e04a147839af30025b6922f" }, "eventId" : { "$oid" : "5e413158a07005167f5ef209" }, "bookingStatus" : "MEMBER_CANCELED", "createdAt" : { "$date" : "2020-02-11T23:04:08.792+0000" }, "updatedAt" : { "$date" : "2020-02-11T23:06:01.098+0000" }, "__v" : 0 }
{ "_id" : { "$oid" : "5e43336005739b5d4ef278a1" }, "favourite" : false, "memberId" : { "$oid" : "5e04a147839af30025b6922f" }, "eventId" : { "$oid" : "5e413158a07005167f5ef209" }, "bookingStatus" : "MEMBER_CANCELED", "createdAt" : { "$date" : "2020-02-11T23:06:08.647+0000" }, "updatedAt" : { "$date" : "2020-02-11T23:07:19.945+0000" }, "__v" : 0 }
{ "_id" : { "$oid" : "5e4333b605739b5d4ef278a2" }, "favourite" : false, "memberId" : { "$oid" : "5e04a147839af30025b6922f" }, "eventId" : { "$oid" : "5e413158a07005167f5ef209" }, "bookingStatus" : "MEMBER_CANCELED", "createdAt" : { "$date" : "2020-02-11T23:07:34.695+0000" }, "updatedAt" : { "$date" : "2020-02-11T23:08:46.895+0000" }, "__v" : 0 }
{ "_id" : { "$oid" : "5e43341605739b5d4ef278a3" }, "favourite" : false, "memberId" : { "$oid" : "5e04a147839af30025b6922f" }, "eventId" : { "$oid" : "5e413158a07005167f5ef209" }, "bookingStatus" : "MEMBER_CANCELED", "createdAt" : { "$date" : "2020-02-11T23:09:10.404+0000" }, "updatedAt" : { "$date" : "2020-02-11T23:09:31.750+0000" }, "__v" : 0 }
{ "_id" : { "$oid" : "5e43343205739b5d4ef278a4" }, "favourite" : false, "memberId" : { "$oid" : "5e04a147839af30025b6922f" }, "eventId" : { "$oid" : "5e413158a07005167f5ef209" }, "bookingStatus" : "MEMBER_CANCELED", "createdAt" : { "$date" : "2020-02-11T23:09:38.561+0000" }, "updatedAt" : { "$date" : "2020-02-11T23:10:53.282+0000" }, "__v" : 0 }
{ "_id" : { "$oid" : "5e43349305739b5d4ef278a5" }, "favourite" : false, "memberId" : { "$oid" : "5e04a147839af30025b6922f" }, "eventId" : { "$oid" : "5e413158a07005167f5ef209" }, "bookingStatus" : "MEMBER_CANCELED", "createdAt" : { "$date" : "2020-02-11T23:11:15.161+0000" }, "updatedAt" : { "$date" : "2020-02-11T23:12:51.177+0000" }, "__v" : 0 }
{ "_id" : { "$oid" : "5e4334fa05739b5d4ef278a6" }, "favourite" : false, "memberId" : { "$oid" : "5e04a147839af30025b6922f" }, "eventId" : { "$oid" : "5e413158a07005167f5ef209" }, "bookingStatus" : "MEMBER_CANCELED", "createdAt" : { "$date" : "2020-02-11T23:12:58.501+0000" }, "updatedAt" : { "$date" : "2020-02-11T23:13:38.861+0000" }, "__v" : 0 }
{ "_id" : { "$oid" : "5e43352905739b5d4ef278a7" }, "favourite" : false, "memberId" : { "$oid" : "5e04a147839af30025b6922f" }, "eventId" : { "$oid" : "5e413158a07005167f5ef209" }, "bookingStatus" : "MEMBER_CANCELED", "createdAt" : { "$date" : "2020-02-11T23:13:45.669+0000" }, "updatedAt" : { "$date" : "2020-02-11T23:13:53.044+0000" }, "__v" : 0 }
{ "_id" : { "$oid" : "5e43353a05739b5d4ef278a8" }, "favourite" : false, "memberId" : { "$oid" : "5e04a147839af30025b6922f" }, "eventId" : { "$oid" : "5e413158a07005167f5ef209" }, "bookingStatus" : "MEMBER_CANCELED", "createdAt" : { "$date" : "2020-02-11T23:14:02.725+0000" }, "updatedAt" : { "$date" : "2020-02-11T23:14:09.635+0000" }, "__v" : 0 }
{ "_id" : { "$oid" : "5e43355b05739b5d4ef278a9" }, "favourite" : false, "memberId" : { "$oid" : "5e04a147839af30025b6922f" }, "eventId" : { "$oid" : "5e413158a07005167f5ef209" }, "bookingStatus" : "MEMBER_CANCELED", "createdAt" : { "$date" : "2020-02-11T23:14:35.336+0000" }, "updatedAt" : { "$date" : "2020-02-11T23:14:38.970+0000" }, "__v" : 0 }
{ "_id" : { "$oid" : "5e43358b05739b5d4ef278aa" }, "favourite" : false, "memberId" : { "$oid" : "5e04a147839af30025b6922f" }, "eventId" : { "$oid" : "5e413158a07005167f5ef209" }, "bookingStatus" : "MEMBER_CANCELED", "createdAt" : { "$date" : "2020-02-11T23:15:23.973+0000" }, "updatedAt" : { "$date" : "2020-02-11T23:15:33.671+0000" }, "__v" : 0 }
{ "_id" : { "$oid" : "5e43359c05739b5d4ef278ab" }, "favourite" : false, "memberId" : { "$oid" : "5e04a147839af30025b6922f" }, "eventId" : { "$oid" : "5e413158a07005167f5ef209" }, "bookingStatus" : "MEMBER_CANCELED", "createdAt" : { "$date" : "2020-02-11T23:15:40.590+0000" }, "updatedAt" : { "$date" : "2020-02-11T23:34:41.647+0000" }, "__v" : 0 }
{ "_id" : { "$oid" : "5e433a1805739b5d4ef278ac" }, "favourite" : false, "memberId" : { "$oid" : "5e04a147839af30025b6922f" }, "eventId" : { "$oid" : "5e413158a07005167f5ef209" }, "bookingStatus" : "MEMBER_CANCELED", "createdAt" : { "$date" : "2020-02-11T23:34:48.387+0000" }, "updatedAt" : { "$date" : "2020-02-11T23:34:53.396+0000" }, "__v" : 0 }
{ "_id" : { "$oid" : "5e433a2405739b5d4ef278ad" }, "favourite" : false, "memberId" : { "$oid" : "5e04a147839af30025b6922f" }, "eventId" : { "$oid" : "5e413158a07005167f5ef209" }, "bookingStatus" : "MEMBER_CANCELED", "createdAt" : { "$date" : "2020-02-11T23:35:00.799+0000" }, "updatedAt" : { "$date" : "2020-02-11T23:35:47.956+0000" }, "__v" : 0 }
{ "_id" : { "$oid" : "5e433a5905739b5d4ef278ae" }, "favourite" : false, "memberId" : { "$oid" : "5e04a147839af30025b6922f" }, "eventId" : { "$oid" : "5e413158a07005167f5ef209" }, "bookingStatus" : "MEMBER_CANCELED", "createdAt" : { "$date" : "2020-02-11T23:35:53.845+0000" }, "updatedAt" : { "$date" : "2020-02-12T13:14:27.635+0000" }, "__v" : 0 }
{ "_id" : { "$oid" : "5e43df0864006c223f2331d7" }, "favourite" : false, "memberId" : { "$oid" : "5e09c2012068670025c8c298" }, "eventId" : { "$oid" : "5e413158a07005167f5ef209" }, "bookingStatus" : "MEMBER_CANCELED", "createdAt" : { "$date" : "2020-02-12T11:18:32.351+0000" }, "updatedAt" : { "$date" : "2020-02-12T11:19:21.500+0000" }, "__v" : 0 }
{ "_id" : { "$oid" : "5e43dfef64006c223f2331d8" }, "favourite" : false, "memberId" : { "$oid" : "5e09c2012068670025c8c298" }, "eventId" : { "$oid" : "5e417f4fa07005167f5ef20c" }, "bookingStatus" : "MEMBER_CANCELED", "createdAt" : { "$date" : "2020-02-12T11:22:23.555+0000" }, "updatedAt" : { "$date" : "2020-02-12T11:22:29.863+0000" }, "__v" : 0 }
{ "_id" : { "$oid" : "5e43dffc64006c223f2331d9" }, "favourite" : false, "memberId" : { "$oid" : "5e09c2012068670025c8c298" }, "eventId" : { "$oid" : "5e413158a07005167f5ef209" }, "bookingStatus" : "MEMBER_CANCELED", "createdAt" : { "$date" : "2020-02-12T11:22:36.460+0000" }, "updatedAt" : { "$date" : "2020-02-12T11:22:41.760+0000" }, "__v" : 0 }
{ "_id" : { "$oid" : "5e43e00a64006c223f2331da" }, "favourite" : false, "memberId" : { "$oid" : "5e09c2012068670025c8c298" }, "eventId" : { "$oid" : "5e413158a07005167f5ef209" }, "bookingStatus" : "MEMBER_CANCELED", "createdAt" : { "$date" : "2020-02-12T11:22:50.949+0000" }, "updatedAt" : { "$date" : "2020-02-12T11:22:54.475+0000" }, "__v" : 0 }
{ "_id" : { "$oid" : "5e43e21564006c223f2331db" }, "favourite" : false, "memberId" : { "$oid" : "5e09c2012068670025c8c298" }, "eventId" : { "$oid" : "5e413158a07005167f5ef209" }, "bookingStatus" : "MEMBER_CANCELED", "createdAt" : { "$date" : "2020-02-12T11:31:33.506+0000" }, "updatedAt" : { "$date" : "2020-02-12T11:31:35.215+0000" }, "__v" : 0 }
{ "_id" : { "$oid" : "5e43ea9564006c223f2331dd" }, "favourite" : false, "memberId" : { "$oid" : "5e09c2012068670025c8c298" }, "eventId" : { "$oid" : "5e417f4fa07005167f5ef20c" }, "bookingStatus" : "MEMBER_CANCELED", "createdAt" : { "$date" : "2020-02-12T12:07:49.759+0000" }, "updatedAt" : { "$date" : "2020-02-12T12:07:52.329+0000" }, "__v" : 0 }
{ "_id" : { "$oid" : "5e43f94d64006c223f2331e0" }, "favourite" : false, "memberId" : { "$oid" : "5e09c2012068670025c8c298" }, "eventId" : { "$oid" : "5e413158a07005167f5ef209" }, "bookingStatus" : "MEMBER_CANCELED", "createdAt" : { "$date" : "2020-02-12T13:10:37.826+0000" }, "updatedAt" : { "$date" : "2020-02-12T14:21:44.631+0000" }, "__v" : 0 }
{ "_id" : { "$oid" : "5e43fa1564006c223f2331e1" }, "favourite" : false, "memberId" : { "$oid" : "5e09c2012068670025c8c298" }, "eventId" : { "$oid" : "5e41808ba07005167f5ef20f" }, "bookingStatus" : "MEMBER_CANCELED", "createdAt" : { "$date" : "2020-02-12T13:13:57.167+0000" }, "updatedAt" : { "$date" : "2020-02-12T13:41:09.144+0000" }, "__v" : 0 }
{ "_id" : { "$oid" : "5e43fa3e64006c223f2331e2" }, "favourite" : false, "memberId" : { "$oid" : "5e04a147839af30025b6922f" }, "eventId" : { "$oid" : "5e413158a07005167f5ef209" }, "bookingStatus" : "MEMBER_CANCELED", "createdAt" : { "$date" : "2020-02-12T13:14:38.826+0000" }, "updatedAt" : { "$date" : "2020-02-12T13:14:40.831+0000" }, "__v" : 0 }
{ "_id" : { "$oid" : "5e43fa5864006c223f2331e3" }, "favourite" : false, "memberId" : { "$oid" : "5e04a147839af30025b6922f" }, "eventId" : { "$oid" : "5e413158a07005167f5ef209" }, "bookingStatus" : "MEMBER_CANCELED", "createdAt" : { "$date" : "2020-02-12T13:15:04.201+0000" }, "updatedAt" : { "$date" : "2020-02-12T13:18:22.713+0000" }, "__v" : 0 }
{ "_id" : { "$oid" : "5e43fb3f64006c223f2331e4" }, "favourite" : false, "memberId" : { "$oid" : "5e18dddad552e1250a7a1d5d" }, "eventId" : { "$oid" : "5e413158a07005167f5ef209" }, "bookingStatus" : "MEMBER_CANCELED", "createdAt" : { "$date" : "2020-02-12T13:18:55.541+0000" }, "updatedAt" : { "$date" : "2020-02-12T13:19:03.095+0000" }, "__v" : 0 }
{ "_id" : { "$oid" : "5e43fb4b64006c223f2331e5" }, "favourite" : false, "memberId" : { "$oid" : "5e18dddad552e1250a7a1d5d" }, "eventId" : { "$oid" : "5e413158a07005167f5ef209" }, "bookingStatus" : "MEMBER_CANCELED", "createdAt" : { "$date" : "2020-02-12T13:19:07.406+0000" }, "updatedAt" : { "$date" : "2020-02-12T13:19:17.793+0000" }, "__v" : 0 }
{ "_id" : { "$oid" : "5e43fb5b64006c223f2331e6" }, "favourite" : false, "memberId" : { "$oid" : "5e18dddad552e1250a7a1d5d" }, "eventId" : { "$oid" : "5e417f4fa07005167f5ef20c" }, "bookingStatus" : "MEMBER_CANCELED", "createdAt" : { "$date" : "2020-02-12T13:19:23.157+0000" }, "updatedAt" : { "$date" : "2020-02-12T13:19:26.243+0000" }, "__v" : 0 }
{ "_id" : { "$oid" : "5e4400d29bb5d72f996ab291" }, "favourite" : false, "memberId" : { "$oid" : "5e09c2012068670025c8c298" }, "eventId" : { "$oid" : "5e41808ba07005167f5ef20f" }, "bookingStatus" : "MEMBER_CANCELED", "createdAt" : { "$date" : "2020-02-12T13:42:42.814+0000" }, "updatedAt" : { "$date" : "2020-02-12T14:19:53.090+0000" }, "__v" : 0 }
{ "_id" : { "$oid" : "5e44098d9bb5d72f996ab292" }, "favourite" : false, "memberId" : { "$oid" : "5e09c2012068670025c8c298" }, "eventId" : { "$oid" : "5e41808ba07005167f5ef20f" }, "bookingStatus" : "MEMBER_CANCELED", "createdAt" : { "$date" : "2020-02-12T14:19:57.859+0000" }, "updatedAt" : { "$date" : "2020-02-12T21:10:54.675+0000" }, "__v" : 0 }
{ "_id" : { "$oid" : "5e4409e29bb5d72f996ab293" }, "favourite" : false, "memberId" : { "$oid" : "5e09c2012068670025c8c298" }, "eventId" : { "$oid" : "5e417f4fa07005167f5ef20c" }, "bookingStatus" : "MEMBER_CANCELED", "createdAt" : { "$date" : "2020-02-12T14:21:22.415+0000" }, "updatedAt" : { "$date" : "2020-02-12T14:21:36.251+0000" }, "__v" : 0 }
{ "_id" : { "$oid" : "5e4409fc9bb5d72f996ab294" }, "favourite" : false, "memberId" : { "$oid" : "5e09c2012068670025c8c298" }, "eventId" : { "$oid" : "5e413158a07005167f5ef209" }, "bookingStatus" : "MEMBER_CANCELED", "createdAt" : { "$date" : "2020-02-12T14:21:48.191+0000" }, "updatedAt" : { "$date" : "2020-02-13T07:53:54.029+0000" }, "__v" : 0 }
{ "_id" : { "$oid" : "5e447a5df74e7697b8ba7acd" }, "eventId" : { "$oid" : "5e44692e1615e92f8bfb0a25" }, "memberId" : { "$oid" : "5e09c2012068670025c8c298" }, "__v" : 0, "createdAt" : { "$date" : "2020-02-12T22:21:17.183+0000" }, "favourite" : true, "updatedAt" : { "$date" : "2020-02-13T15:01:28.479+0000" } }
{ "_id" : { "$oid" : "5e447a789bb5d72f996ab295" }, "favourite" : false, "memberId" : { "$oid" : "5e09c2012068670025c8c298" }, "eventId" : { "$oid" : "5e4476f91615e92f8bfb0a39" }, "bookingStatus" : "MEMBER_CANCELED", "createdAt" : { "$date" : "2020-02-12T22:21:44.967+0000" }, "updatedAt" : { "$date" : "2020-02-15T08:21:25.197+0000" }, "__v" : 0 }
{ "_id" : { "$oid" : "5e449405f74e7697b8ba8573" }, "eventId" : { "$oid" : "5e44692e1615e92f8bfb0a25" }, "memberId" : { "$oid" : "5e18dddad552e1250a7a1d5d" }, "__v" : 0, "createdAt" : { "$date" : "2020-02-13T00:10:45.178+0000" }, "favourite" : true, "updatedAt" : { "$date" : "2020-02-13T00:10:45.178+0000" } }
{ "_id" : { "$oid" : "5e44e39f9bb5d72f996ab296" }, "favourite" : true, "memberId" : { "$oid" : "5e18dddad552e1250a7a1d5d" }, "eventId" : { "$oid" : "5e4476f91615e92f8bfb0a39" }, "bookingStatus" : "MEMBER_CANCELED", "createdAt" : { "$date" : "2020-02-13T05:50:23.600+0000" }, "updatedAt" : { "$date" : "2020-02-13T09:09:43.494+0000" }, "__v" : 0 }
{ "_id" : { "$oid" : "5e44e5da9bb5d72f996ab297" }, "favourite" : false, "memberId" : { "$oid" : "5e18dddad552e1250a7a1d5d" }, "eventId" : { "$oid" : "5e4476f91615e92f8bfb0a39" }, "bookingStatus" : "MEMBER_CANCELED", "createdAt" : { "$date" : "2020-02-13T05:59:54.879+0000" }, "updatedAt" : { "$date" : "2020-02-13T06:03:54.196+0000" }, "__v" : 0 }
{ "_id" : { "$oid" : "5e44e6d29bb5d72f996ab298" }, "favourite" : false, "memberId" : { "$oid" : "5e18dddad552e1250a7a1d5d" }, "eventId" : { "$oid" : "5e4476f91615e92f8bfb0a39" }, "bookingStatus" : "MEMBER_CANCELED", "createdAt" : { "$date" : "2020-02-13T06:04:02.510+0000" }, "updatedAt" : { "$date" : "2020-02-13T06:07:33.755+0000" }, "__v" : 0 }
{ "_id" : { "$oid" : "5e44e7ba9bb5d72f996ab299" }, "favourite" : false, "memberId" : { "$oid" : "5e18dddad552e1250a7a1d5d" }, "eventId" : { "$oid" : "5e4476f91615e92f8bfb0a39" }, "bookingStatus" : "MEMBER_CANCELED", "createdAt" : { "$date" : "2020-02-13T06:07:54.471+0000" }, "updatedAt" : { "$date" : "2020-02-13T06:11:47.411+0000" }, "__v" : 0 }
{ "_id" : { "$oid" : "5e44e8b69bb5d72f996ab29a" }, "favourite" : false, "memberId" : { "$oid" : "5e18dddad552e1250a7a1d5d" }, "eventId" : { "$oid" : "5e4476f91615e92f8bfb0a39" }, "bookingStatus" : "MEMBER_CANCELED", "createdAt" : { "$date" : "2020-02-13T06:12:06.282+0000" }, "updatedAt" : { "$date" : "2020-02-13T06:12:49.502+0000" }, "__v" : 0 }
{ "_id" : { "$oid" : "5e44e8e49bb5d72f996ab29b" }, "favourite" : false, "memberId" : { "$oid" : "5e18dddad552e1250a7a1d5d" }, "eventId" : { "$oid" : "5e4476f91615e92f8bfb0a39" }, "bookingStatus" : "CONCIERGE_CONFIRMED", "createdAt" : { "$date" : "2020-02-13T06:12:52.937+0000" }, "updatedAt" : { "$date" : "2020-02-14T10:16:14.598+0000" }, "__v" : 0 }
{ "_id" : { "$oid" : "5e44f89e9bb5d72f996ab29f" }, "favourite" : false, "memberId" : { "$oid" : "5e09c2012068670025c8c298" }, "eventId" : { "$oid" : "5e4476f91615e92f8bfb0a39" }, "bookingStatus" : "MEMBER_CANCELED", "createdAt" : { "$date" : "2020-02-13T07:19:58.133+0000" }, "updatedAt" : { "$date" : "2020-02-13T07:20:17.648+0000" }, "__v" : 0 }
{ "_id" : { "$oid" : "5e4500cf9bb5d72f996ab2a0" }, "favourite" : false, "memberId" : { "$oid" : "5e09c2012068670025c8c298" }, "eventId" : { "$oid" : "5e41808ba07005167f5ef20f" }, "bookingStatus" : "MEMBER_CANCELED", "createdAt" : { "$date" : "2020-02-13T07:54:55.257+0000" }, "updatedAt" : { "$date" : "2020-02-13T07:55:00.589+0000" }, "__v" : 0 }
{ "_id" : { "$oid" : "5e4500d69bb5d72f996ab2a1" }, "favourite" : false, "memberId" : { "$oid" : "5e09c2012068670025c8c298" }, "eventId" : { "$oid" : "5e41808ba07005167f5ef20f" }, "bookingStatus" : "MEMBER_CANCELED", "createdAt" : { "$date" : "2020-02-13T07:55:02.765+0000" }, "updatedAt" : { "$date" : "2020-02-13T07:55:04.467+0000" }, "__v" : 0 }
{ "_id" : { "$oid" : "5e4501d19bb5d72f996ab2a2" }, "favourite" : false, "memberId" : { "$oid" : "5e09c2012068670025c8c298" }, "eventId" : { "$oid" : "5e41808ba07005167f5ef20f" }, "bookingStatus" : "MEMBER_CANCELED", "createdAt" : { "$date" : "2020-02-13T07:59:13.994+0000" }, "updatedAt" : { "$date" : "2020-02-13T08:00:02.007+0000" }, "__v" : 0 }
{ "_id" : { "$oid" : "5e4502189bb5d72f996ab2a3" }, "favourite" : false, "memberId" : { "$oid" : "5e09c2012068670025c8c298" }, "eventId" : { "$oid" : "5e4476f91615e92f8bfb0a39" }, "bookingStatus" : "MEMBER_CANCELED", "createdAt" : { "$date" : "2020-02-13T08:00:24.056+0000" }, "updatedAt" : { "$date" : "2020-02-14T06:49:34.178+0000" }, "__v" : 0 }
{ "_id" : { "$oid" : "5e4503089bb5d72f996ab2a4" }, "favourite" : false, "memberId" : { "$oid" : "5e09c2012068670025c8c298" }, "eventId" : { "$oid" : "5e413158a07005167f5ef209" }, "bookingStatus" : "MEMBER_REQUESTED", "createdAt" : { "$date" : "2020-02-13T08:04:24.240+0000" }, "updatedAt" : { "$date" : "2020-02-13T08:04:24.240+0000" }, "__v" : 0 }
{ "_id" : { "$oid" : "5e4504589bb5d72f996ab2a5" }, "favourite" : true, "memberId" : { "$oid" : "5e09c2012068670025c8c298" }, "eventId" : { "$oid" : "5e4473ce1615e92f8bfb0a34" }, "bookingStatus" : "MEMBER_CANCELED", "createdAt" : { "$date" : "2020-02-13T08:10:00.126+0000" }, "updatedAt" : { "$date" : "2020-02-13T11:48:59.249+0000" }, "__v" : 0 }
{ "_id" : { "$oid" : "5e4507029bb5d72f996ab2a6" }, "favourite" : false, "memberId" : { "$oid" : "5e09c2012068670025c8c298" }, "eventId" : { "$oid" : "5e4473ce1615e92f8bfb0a34" }, "bookingStatus" : "MEMBER_CANCELED", "createdAt" : { "$date" : "2020-02-13T08:21:22.787+0000" }, "updatedAt" : { "$date" : "2020-02-13T08:21:38.471+0000" }, "__v" : 0 }
{ "_id" : { "$oid" : "5e4507249bb5d72f996ab2a7" }, "favourite" : false, "memberId" : { "$oid" : "5e09c2012068670025c8c298" }, "eventId" : { "$oid" : "5e4473ce1615e92f8bfb0a34" }, "bookingStatus" : "MEMBER_CANCELED", "createdAt" : { "$date" : "2020-02-13T08:21:56.603+0000" }, "updatedAt" : { "$date" : "2020-02-13T08:22:02.870+0000" }, "__v" : 0 }
{ "_id" : { "$oid" : "5e45382f9bb5d72f996ab2a8" }, "favourite" : false, "memberId" : { "$oid" : "5e09c2012068670025c8c298" }, "eventId" : { "$oid" : "5e4473ce1615e92f8bfb0a34" }, "bookingStatus" : "MEMBER_REQUESTED", "createdAt" : { "$date" : "2020-02-13T11:51:11.258+0000" }, "updatedAt" : { "$date" : "2020-02-13T11:51:11.258+0000" }, "__v" : 0 }
{ "_id" : { "$oid" : "5e4643025da59c227872af1d" }, "memberId" : { "$oid" : "5e09c2012068670025c8c298" }, "eventId" : { "$oid" : "5e4476f91615e92f8bfb0a39" }, "bookingStatus" : "MEMBER_CANCELED", "createdAt" : { "$date" : "2020-02-14T06:49:38.026+0000" }, "updatedAt" : { "$date" : "2020-02-14T08:06:28.245+0000" }, "__v" : 0 }
{ "_id" : { "$oid" : "5e4655055da59c227872af20" }, "memberId" : { "$oid" : "5e09c2012068670025c8c298" }, "eventId" : { "$oid" : "5e4476f91615e92f8bfb0a39" }, "bookingStatus" : "MEMBER_CANCELED", "createdAt" : { "$date" : "2020-02-14T08:06:29.790+0000" }, "updatedAt" : { "$date" : "2020-02-14T08:06:40.689+0000" }, "__v" : 0 }
{ "_id" : { "$oid" : "5e4655135da59c227872af21" }, "memberId" : { "$oid" : "5e09c2012068670025c8c298" }, "eventId" : { "$oid" : "5e4476f91615e92f8bfb0a39" }, "bookingStatus" : "MEMBER_CANCELED", "createdAt" : { "$date" : "2020-02-14T08:06:43.008+0000" }, "updatedAt" : { "$date" : "2020-02-14T09:30:40.141+0000" }, "__v" : 0 }
{ "_id" : { "$oid" : "5e4667625da59c227872af22" }, "memberId" : { "$oid" : "5e09c2012068670025c8c298" }, "eventId" : { "$oid" : "5e41808ba07005167f5ef20f" }, "bookingStatus" : "MEMBER_CANCELED", "createdAt" : { "$date" : "2020-02-14T09:24:50.960+0000" }, "updatedAt" : { "$date" : "2020-02-14T09:25:09.502+0000" }, "__v" : 0 }
{ "_id" : { "$oid" : "5e4667d6d855bc49dd2c5eeb" }, "memberId" : { "$oid" : "5e09c2012068670025c8c298" }, "eventId" : { "$oid" : "5e41808ba07005167f5ef20f" }, "bookingStatus" : "MEMBER_CANCELED", "createdAt" : { "$date" : "2020-02-14T09:26:46.101+0000" }, "updatedAt" : { "$date" : "2020-02-14T09:29:03.377+0000" }, "__v" : 0 }
{ "_id" : { "$oid" : "5e466958b4fe214a72a8367c" }, "memberId" : { "$oid" : "5e09c2012068670025c8c298" }, "eventId" : { "$oid" : "5e4476f91615e92f8bfb0a39" }, "bookingStatus" : "MEMBER_CANCELED", "createdAt" : { "$date" : "2020-02-14T09:33:12.890+0000" }, "updatedAt" : { "$date" : "2020-02-14T09:35:56.054+0000" }, "__v" : 0 }
{ "_id" : { "$oid" : "5e466a8ff822644b10b39ff5" }, "memberId" : { "$oid" : "5e09c2012068670025c8c298" }, "eventId" : { "$oid" : "5e4476f91615e92f8bfb0a39" }, "bookingStatus" : "MEMBER_CANCELED", "createdAt" : { "$date" : "2020-02-14T09:38:23.504+0000" }, "updatedAt" : { "$date" : "2020-02-14T09:40:49.957+0000" }, "__v" : 0 }
{ "_id" : { "$oid" : "5e466ba440d8344bbdb1bfba" }, "memberId" : { "$oid" : "5e09c2012068670025c8c298" }, "eventId" : { "$oid" : "5e4476f91615e92f8bfb0a39" }, "bookingStatus" : "MEMBER_CANCELED", "createdAt" : { "$date" : "2020-02-14T09:43:00.956+0000" }, "updatedAt" : { "$date" : "2020-02-14T09:44:55.960+0000" }, "__v" : 0 }
{ "_id" : { "$oid" : "5e466c36b8c63e4bfdc183fc" }, "memberId" : { "$oid" : "5e09c2012068670025c8c298" }, "eventId" : { "$oid" : "5e4476f91615e92f8bfb0a39" }, "bookingStatus" : "MEMBER_CANCELED", "createdAt" : { "$date" : "2020-02-14T09:45:26.377+0000" }, "updatedAt" : { "$date" : "2020-02-14T09:45:58.748+0000" }, "__v" : 0 }
{ "_id" : { "$oid" : "5e466cdf3e99a74c3c91a78e" }, "memberId" : { "$oid" : "5e09c2012068670025c8c298" }, "eventId" : { "$oid" : "5e4476f91615e92f8bfb0a39" }, "bookingStatus" : "MEMBER_CANCELED", "createdAt" : { "$date" : "2020-02-14T09:48:15.822+0000" }, "updatedAt" : { "$date" : "2020-02-14T09:48:46.917+0000" }, "__v" : 0 }
{ "_id" : { "$oid" : "5e466e1c3f73fd4cd2dac73e" }, "memberId" : { "$oid" : "5e09c2012068670025c8c298" }, "eventId" : { "$oid" : "5e4476f91615e92f8bfb0a39" }, "bookingStatus" : "CONCIERGE_REJECTED", "createdAt" : { "$date" : "2020-02-14T09:53:32.277+0000" }, "updatedAt" : { "$date" : "2020-02-14T10:15:58.838+0000" }, "__v" : 0 }
{ "_id" : { "$oid" : "5e47c842b1ba4955793999c7" }, "memberId" : { "$oid" : "5e09c2012068670025c8c298" }, "eventId" : { "$oid" : "5e4476f91615e92f8bfb0a39" }, "bookingStatus" : "MEMBER_CANCELED", "createdAt" : { "$date" : "2020-02-15T10:30:26.559+0000" }, "updatedAt" : { "$date" : "2020-02-15T10:32:20.910+0000" }, "__v" : 0 }
{ "_id" : { "$oid" : "5e47cf11b8e08223e6848ce3" }, "memberId" : { "$oid" : "5e09c2012068670025c8c298" }, "eventId" : { "$oid" : "5e4476f91615e92f8bfb0a39" }, "bookingStatus" : "MEMBER_CANCELED", "createdAt" : { "$date" : "2020-02-15T10:59:29.329+0000" }, "updatedAt" : { "$date" : "2020-02-15T10:59:32.140+0000" }, "__v" : 0 }
{ "_id" : { "$oid" : "5e47cf2ab8e08223e6848ce4" }, "memberId" : { "$oid" : "5e09c2012068670025c8c298" }, "eventId" : { "$oid" : "5e4476f91615e92f8bfb0a39" }, "bookingStatus" : "MEMBER_CANCELED", "createdAt" : { "$date" : "2020-02-15T10:59:54.295+0000" }, "updatedAt" : { "$date" : "2020-02-15T10:59:57.294+0000" }, "__v" : 0 }
{ "_id" : { "$oid" : "5e47e3a67bf6532c2b03d428" }, "memberId" : { "$oid" : "5e09c2012068670025c8c298" }, "eventId" : { "$oid" : "5e4476f91615e92f8bfb0a39" }, "bookingStatus" : "MEMBER_CANCELED", "createdAt" : { "$date" : "2020-02-15T12:27:18.128+0000" }, "updatedAt" : { "$date" : "2020-02-15T12:28:55.788+0000" }, "__v" : 0 }
{ "_id" : { "$oid" : "5e47e5c17bf6532c2b03d42b" }, "memberId" : { "$oid" : "5e09c2012068670025c8c298" }, "eventId" : { "$oid" : "5e4476f91615e92f8bfb0a39" }, "bookingStatus" : "MEMBER_CANCELED", "createdAt" : { "$date" : "2020-02-15T12:36:17.557+0000" }, "updatedAt" : { "$date" : "2020-02-15T12:36:21.097+0000" }, "__v" : 0 }
{ "_id" : { "$oid" : "5e47e6407bf6532c2b03d42c" }, "memberId" : { "$oid" : "5e09c2012068670025c8c298" }, "eventId" : { "$oid" : "5e4476f91615e92f8bfb0a39" }, "bookingStatus" : "MEMBER_CANCELED", "createdAt" : { "$date" : "2020-02-15T12:38:24.143+0000" }, "updatedAt" : { "$date" : "2020-02-15T12:38:30.807+0000" }, "__v" : 0 }
{ "_id" : { "$oid" : "5e47eac57bf6532c2b03d42d" }, "memberId" : { "$oid" : "5e09c2012068670025c8c298" }, "eventId" : { "$oid" : "5e4476f91615e92f8bfb0a39" }, "bookingStatus" : "MEMBER_CANCELED", "createdAt" : { "$date" : "2020-02-15T12:57:41.568+0000" }, "updatedAt" : { "$date" : "2020-02-15T12:57:45.045+0000" }, "__v" : 0 }
{ "_id" : { "$oid" : "5e48182fd3cd6b3ef643f7ab" }, "memberId" : { "$oid" : "5e15a9619ff1c176a40e5b07" }, "eventId" : { "$oid" : "5e4476f91615e92f8bfb0a39" }, "bookingStatus" : "MEMBER_REQUESTED", "createdAt" : { "$date" : "2020-02-15T16:11:27.074+0000" }, "updatedAt" : { "$date" : "2020-02-15T16:11:27.074+0000" }, "__v" : 0 }
{ "_id" : { "$oid" : "5e48184dd3cd6b3ef643f7ac" }, "memberId" : { "$oid" : "5e47cbb6993cbe223396f747" }, "eventId" : { "$oid" : "5e4476f91615e92f8bfb0a39" }, "bookingStatus" : "MEMBER_REQUESTED", "createdAt" : { "$date" : "2020-02-15T16:11:57.307+0000" }, "updatedAt" : { "$date" : "2020-02-15T16:11:57.307+0000" }, "__v" : 0 }
{ "_id" : { "$oid" : "5e48186ed3cd6b3ef643f7ad" }, "memberId" : { "$oid" : "5e09c1a42068670025c8c28d" }, "eventId" : { "$oid" : "5e4476f91615e92f8bfb0a39" }, "bookingStatus" : "MEMBER_REQUESTED", "createdAt" : { "$date" : "2020-02-15T16:12:30.594+0000" }, "updatedAt" : { "$date" : "2020-02-15T16:12:30.594+0000" }, "__v" : 0 }
{ "_id" : { "$oid" : "5e48560b1116ec4c8a62f55e" }, "memberId" : { "$oid" : "5e47cbb6993cbe223396f747" }, "eventId" : { "$oid" : "5e47ce6c66e88a23df594ade" }, "bookingStatus" : "MEMBER_CANCELED", "createdAt" : { "$date" : "2020-02-15T20:35:23.177+0000" }, "updatedAt" : { "$date" : "2020-02-16T18:23:49.355+0000" }, "__v" : 0 }
{ "_id" : { "$oid" : "5e4856f21116ec4c8a62f55f" }, "memberId" : { "$oid" : "5e15a9619ff1c176a40e5b07" }, "eventId" : { "$oid" : "5e47ce6c66e88a23df594ade" }, "bookingStatus" : "CONCIERGE_REJECTED", "createdAt" : { "$date" : "2020-02-15T20:39:14.845+0000" }, "updatedAt" : { "$date" : "2020-02-16T16:31:11.723+0000" }, "__v" : 0 }
{ "_id" : { "$oid" : "5e485b29b424184de81cb16a" }, "memberId" : { "$oid" : "5e09c2012068670025c8c298" }, "eventId" : { "$oid" : "5e47ce6c66e88a23df594ade" }, "bookingStatus" : "CONCIERGE_CONFIRMED", "createdAt" : { "$date" : "2020-02-15T20:57:13.907+0000" }, "updatedAt" : { "$date" : "2020-02-15T20:57:13.907+0000" }, "__v" : 0 }
{ "_id" : { "$oid" : "5e485d4d43d8f94fef7cb4b6" }, "memberId" : { "$oid" : "5e09c2012068670025c8c298" }, "eventId" : { "$oid" : "5e4476f91615e92f8bfb0a39" }, "bookingStatus" : "MEMBER_CANCELED", "createdAt" : { "$date" : "2020-02-15T21:06:21.222+0000" }, "updatedAt" : { "$date" : "2020-02-15T21:07:26.082+0000" }, "__v" : 0 }
{ "_id" : { "$oid" : "5e485dcf9f269a4f79fa2397" }, "memberId" : { "$oid" : "5e2301e079cb543b82767e5d" }, "eventId" : { "$oid" : "5e47ce6c66e88a23df594ade" }, "bookingStatus" : "CONCIERGE_CONFIRMED", "createdAt" : { "$date" : "2020-02-15T21:08:31.092+0000" }, "updatedAt" : { "$date" : "2020-02-15T21:08:31.092+0000" }, "__v" : 0 }
{ "_id" : { "$oid" : "5e496e49a937f812fa7c46e1" }, "memberId" : { "$oid" : "5e2ffc27633f78425d28efba" }, "eventId" : { "$oid" : "5e47ce6c66e88a23df594ade" }, "bookingStatus" : "CONCIERGE_CONFIRMED", "createdAt" : { "$date" : "2020-02-16T16:31:05.678+0000" }, "updatedAt" : { "$date" : "2020-02-16T16:31:05.678+0000" }, "__v" : 0 }
{ "_id" : { "$oid" : "5e4988b930ad401d6894be71" }, "memberId" : { "$oid" : "5e47cbb6993cbe223396f747" }, "eventId" : { "$oid" : "5e47ce6c66e88a23df594ade" }, "bookingStatus" : "MEMBER_REQUESTED", "createdAt" : { "$date" : "2020-02-16T18:23:53.729+0000" }, "updatedAt" : { "$date" : "2020-02-16T18:23:53.729+0000" }, "__v" : 0 }
